…
The Community Notes datasets have dates formatted as milliseconds since
the epoch; there’s a function for reading these.

``` r
notes |> 
  transmute(createdAtMillis, createdAt_datetime = millis_to_datetime(createdAtMillis))
#> # A tibble: 389,214 × 2
#>    createdAtMillis createdAt_datetime 
#>              <dbl> <dttm>             
#>  1   1655318404027 2022-06-15 11:40:04
#>  2   1655318986910 2022-06-15 11:49:46
#>  3   1655319460217 2022-06-15 11:57:40
#>  4   1655333070821 2022-06-15 15:44:30
#>  5   1656100269455 2022-06-24 12:51:09
#>  6   1667150391800 2022-10-30 10:19:51
#>  7   1670082213627 2022-12-03 07:43:33
#>  8   1680031214479 2023-03-28 12:20:14
#>  9   1668583052022 2022-11-15 23:17:32
#> 10   1654838151541 2022-06-09 22:15:51
#> # ℹ 389,204 more rows
```

There’s also a function implementing a little-known trick for extracting
create dates from `tweetId`s.

``` r
notes |> 
  transmute(tweetId, tweet_created_at = id_to_datetime(tweetId))
#> # A tibble: 389,214 × 2
#>    tweetId             tweet_created_at   
#>    <chr>               <dttm>             
#>  1 1377030478167937024 2021-03-30 15:50:24
#>  2 1536848327979016193 2022-06-14 16:09:29
#>  3 1537080831751102467 2022-06-15 07:33:22
#>  4 1537196168953974784 2022-06-15 15:11:41
#>  5 1540087463099736065 2022-06-23 14:40:39
#>  6 1586411168880807936 2022-10-29 10:34:31
#>  7 1598827733072560129 2022-12-02 15:53:31
#>  8 1640773789679230977 2023-03-28 10:52:10
#>  9 1592776673891581952 2022-11-15 23:08:46
#> 10 1535062308426510337 2022-06-09 17:52:29
#> # ℹ 389,204 more rows
```

If you apply `auto_format` to a Community Notes dataset, it will
automatically apply these mutations to the relevant columns. It will
also provide a handy tweet URL which, while not the canonical tweet URL,
will lead you to the correct tweet due to some funky server logic that
Twitter does for tweet ID URLs.

``` r
notes |> 
  auto_format() |> 
  select(noteId, tweetId, createdAt_datetime, tweet_create_datetime, tweet_url)
#> # A tibble: 389,214 × 5
#>    noteId            tweetId createdAt_datetime  tweet_create_datetime tweet_url
#>    <chr>             <chr>   <dttm>              <dttm>                <chr>    
#>  1 1537142913737428… 137703… 2022-06-15 11:40:04 2021-03-30 15:50:24   https://…
#>  2 1537145358521839… 153684… 2022-06-15 11:49:46 2022-06-14 16:09:29   https://…
#>  3 1537147343715282… 153708… 2022-06-15 11:57:40 2022-06-15 07:33:22   https://…
#>  4 1537204430730211… 153719… 2022-06-15 15:44:30 2022-06-15 15:11:41   https://…
#>  5 1540422295029551… 154008… 2022-06-24 12:51:09 2022-06-23 14:40:39   https://…
#>  6 1586769867381669… 158641… 2022-10-30 10:19:51 2022-10-29 10:34:31   https://…
#>  7 1599066819402162… 159882… 2022-12-03 07:43:33 2022-12-02 15:53:31   https://…
#>  8 1640795953472114… 164077… 2023-03-28 12:20:14 2023-03-28 10:52:10   https://…
#>  9 1592778879885709… 159277… 2022-11-15 23:17:32 2022-11-15 23:08:46   https://…
#> 10 1535128588818653… 153506… 2022-06-09 22:15:51 2022-06-09 17:52:29   https://…
#> # ℹ 389,204 more rows
```
…
